DATS6101 Project 1
…
Maximum medals earned by each sport, this tells us which sport is awarded the most medals by country. The USA is top in Swimming and Athletics

country_medals.sport <- winners_only %>% group_by(NOC, Sport) %>% summarize(Medal_Count = n())

country_medals.sport <- country_medals.sport %>% group_by(Sport) %>% filter(Medal_Count == max(Medal_Count))
country_medals.sport <- country_medals.sport[order(country_medals.sport$Medal_Count, decreasing = T),]
print(country_medals.sport)

## # A tibble: 57 x 3
## # Groups:   Sport [52]
##    NOC   Sport         Medal_Count
##    <chr> <fct>               <int>
##  1 USA   Swimming             1077
##  2 USA   Athletics            1057
##  3 GER   Rowing                471
##  4 RUS   Gymnastics            371
##  5 ITA   Fencing               357
##  6 USA   Basketball            341
##  7 NED   Hockey                255
##  8 GER   Canoeing              229
##  9 RUS   Volleyball            211
## 10 GER   Equestrianism         205
## # ... with 47 more rows

## # A tibble: 52 x 2
##    Sport      Medal_count
##    <fct>            <int>
##  1 Athletics         3904
##  2 Swimming          3027
##  3 Rowing            2838
##  4 Gymnastics        2200
##  5 Fencing           1702
##  6 Football          1537
##  7 Hockey            1528
##  8 Wrestling         1284
##  9 Cycling           1242
## 10 Sailing           1232
## # ... with 42 more rows
